{"dir":"FDSoil",
"modulo":"admin_roles_aux",
"arr":[
    {"dir":"appOrg", "typ":"css" , "arc":"tpl"},
    {"dir":"appOrg", "typ":"css" , "arc":"form"},
    {"dir":"appOrg", "typ":"css" , "arc":"menu"},
    {"dir":"appOrg", "typ":"js"  , "arc":"app"},
    {"dir":"appOrg", "typ":"js"  , "arc":"validar"},
    {"dir":"modulo", "typ":"js"  , "arc":"menuOpt"},
    {"dir":"FDSoil", "typ":"js"  , "arc":"menu"},
    {"dir":"FDSoil", "typ":"js"  , "arc":"tabla"},
    {"dir":"FDSoil", "typ":"js"  , "arc":"validar"}
]}
