{"dir":"appOrg",
"modulo":"tel_cod_area_nac",
"path":"../../../../",
"arr":[
    {"dir":"appOrg"  , "typ":"css" , "arc":"table"    },
    {"dir":"FDSoil"  , "typ":"js"  , "arc":"pickList" },
    {"dir":"pickList", "typ":"css" , "arc":"pickList" },
    {"dir":"pickList", "typ":"js"  , "arc":"pickList" }
]}

