{"dir":"myApp",
"modulo":"almacen_aux",
"arr":[
    {"dir":"packs", "typ":"js" , "arc":"jquery/jquery-ui-custom"        },
    {"dir":"FDSoil", "typ":"js" , "arc":"relocate"        },
    {"dir":"FDSoil", "typ":"js" , "arc":"combo"           },
    {"dir":"FDSoil", "typ":"js" , "arc":"ajax"            },
    {"dir":"FDSoil", "typ":"js" , "arc":"array"           },
    {"dir":"FDSoil", "typ":"js" , "arc":"time"           },
    {"dir":"FDSoil", "typ":"js" , "arc":"numero"          },
    {"dir":"FDSoil", "typ":"js" , "arc":"effect"          },
    {"dir":"FDSoil", "typ":"js" , "arc":"solapador"       },
    {"dir":"FDSoil", "typ":"js" , "arc":"timepicki"       },
    {"dir":"FDSoil", "typ":"js" , "arc":"alerts"          },
    {"dir":"FDSoil", "typ":"js" , "arc":"msjAdmin"        },
    {"dir":"FDSoil", "typ":"js" , "arc":"tabla"           },
    {"dir":"FDSoil", "typ":"js" , "arc":"validar"         },
    {"dir":"FDSoil", "typ":"js" , "arc":"validateData"    },
    {"dir":"FDSoil", "typ":"js" , "arc":"formatData"      },
    {"dir":"FDSoil", "typ":"js" , "arc":"constraintsData" },
    {"dir":"appOrg", "typ":"js" , "arc":"app"             },
    {"dir":"appOrg", "typ":"js" , "arc":"validar"         },
    {"dir":"appOrg", "typ":"css", "arc":"tpl"             },
    {"dir":"appOrg", "typ":"css", "arc":"form"            },
    {"dir":"appOrg", "typ":"css", "arc":"calendar"        },
    {"dir":"appOrg", "typ":"css", "arc":"timepicki"        },
    {"dir":"appOrg", "typ":"css", "arc":"validateData"    },
    {"dir":"appOrg", "typ":"css", "arc":"deniedWritingImg"},
    {"dir":"appOrg", "typ":"css", "arc":"solapador"       },
    {"dir":"appOrg", "typ":"css", "arc":"alerts"          },
    {"dir":"modulo", "typ":"js", "arc":"reqsMaestro"},
    {"dir":"modulo", "typ":"js", "arc":"reqDetalle"},
    {"dir":"modulo", "typ":"js", "arc":"tabDetalle"},
    {"dir":"modulo", "typ":"js", "arc":"valDetalle"},
    {"dir":"modulo", "typ":"js" , "arc":"validar"         }
]}
