{"dir":"FDSoil", 
"modulo":"admin_construction",
"arr":[
    {"dir":"appOrg", "typ":"css" , "arc":"tpl"},
    {"dir":"appOrg", "typ":"css" , "arc":"form"},
    {"dir":"appOrg", "typ":"css" , "arc":"menu"},
    {"dir":"myApp" , "typ":"css" , "arc":"content"},
    {"dir":"appOrg", "typ":"js"  , "arc":"app"},
    {"dir":"appOrg", "typ":"js"  , "arc":"validar"},
    {"dir":"FDSoil", "typ":"js"  , "arc":"validar"},
    {"dir":"FDSoil", "typ":"js"  , "arc":"numero"},
    {"dir":"FDSoil", "typ":"js"  , "arc":"menu"},
    {"dir":"FDSoil", "typ":"js"  , "arc":"effect"}
]}

